sim.vcd
$version Generated by VerilatedVcd $end
$timescale 1s $end

 $scope module TOP $end
  $var wire  1 # clk $end
  $var wire  1 $ rst $end
  $scope module tb $end
   $var wire 64 % c [63:0] $end
   $var wire  1 # clk $end
   $var wire  1 $ rst $end
   $scope module cc $end
    $var wire  1 # clk $end
    $var wire 64 % counter [63:0] $end
    $var wire 64 % counter_w [63:0] $end
    $var wire  1 $ n_rst $end
   $upscope $end
  $upscope $end
 $upscope $end
$enddefinitions $end


#0
1#
1$
b0000000000000000000000000000000000000000000000000000000000000001 %
#1
0#
#2
1#
b0000000000000000000000000000000000000000000000000000000000000010 %
#3
0#
#4
1#
b0000000000000000000000000000000000000000000000000000000000000011 %
#5
0#
#6
1#
b0000000000000000000000000000000000000000000000000000000000000100 %
#7
0#
#8
1#
b0000000000000000000000000000000000000000000000000000000000000101 %
#9
0#
#10
1#
b0000000000000000000000000000000000000000000000000000000000000110 %
#11
0#
#12
1#
b0000000000000000000000000000000000000000000000000000000000000111 %
#13
0#
#14
1#
b0000000000000000000000000000000000000000000000000000000000001000 %
#15
0#
#16
1#
b0000000000000000000000000000000000000000000000000000000000001001 %
#17
0#
#18
1#
b0000000000000000000000000000000000000000000000000000000000001010 %
#19
0#
#20
1#
b0000000000000000000000000000000000000000000000000000000000001011 %
#21
0#
#22
1#
b0000000000000000000000000000000000000000000000000000000000001100 %
#23
0#
#24
1#
b0000000000000000000000000000000000000000000000000000000000001101 %
#25
0#
#26
1#
b0000000000000000000000000000000000000000000000000000000000001110 %
#27
0#
#28
1#
b0000000000000000000000000000000000000000000000000000000000001111 %
#29
0#
#30
1#
b0000000000000000000000000000000000000000000000000000000000010000 %
#31
0#
#32
1#
b0000000000000000000000000000000000000000000000000000000000010001 %
#33
0#
#34
1#
b0000000000000000000000000000000000000000000000000000000000010010 %
#35
0#
#36
1#
b0000000000000000000000000000000000000000000000000000000000010011 %
#37
0#
#38
1#
b0000000000000000000000000000000000000000000000000000000000010100 %
#39
0#
#40
1#
b0000000000000000000000000000000000000000000000000000000000010101 %
#41
0#
#42
1#
b0000000000000000000000000000000000000000000000000000000000010110 %
#43
0#
#44
1#
b0000000000000000000000000000000000000000000000000000000000010111 %
#45
0#
#46
1#
b0000000000000000000000000000000000000000000000000000000000011000 %
#47
0#
#48
1#
b0000000000000000000000000000000000000000000000000000000000011001 %
#49
0#
#50
1#
b0000000000000000000000000000000000000000000000000000000000011010 %
#51
0#
#52
1#
b0000000000000000000000000000000000000000000000000000000000011011 %
#53
0#
#54
1#
b0000000000000000000000000000000000000000000000000000000000011100 %
#55
0#
#56
1#
b0000000000000000000000000000000000000000000000000000000000011101 %
#57
0#
#58
1#
b0000000000000000000000000000000000000000000000000000000000011110 %
#59
0#
#60
1#
b0000000000000000000000000000000000000000000000000000000000011111 %
#61
0#
#62
1#
b0000000000000000000000000000000000000000000000000000000000100000 %
#63
0#
#64
1#
b0000000000000000000000000000000000000000000000000000000000100001 %
#65
0#
#66
1#
b0000000000000000000000000000000000000000000000000000000000100010 %
#67
0#
#68
1#
b0000000000000000000000000000000000000000000000000000000000100011 %
#69
0#
#70
1#
b0000000000000000000000000000000000000000000000000000000000100100 %
#71
0#
#72
1#
b0000000000000000000000000000000000000000000000000000000000100101 %
#73
0#
#74
1#
b0000000000000000000000000000000000000000000000000000000000100110 %
#75
0#
#76
1#
b0000000000000000000000000000000000000000000000000000000000100111 %
#77
0#
#78
1#
b0000000000000000000000000000000000000000000000000000000000101000 %
#79
0#
#80
1#
b0000000000000000000000000000000000000000000000000000000000101001 %
#81
0#
#82
1#
b0000000000000000000000000000000000000000000000000000000000101010 %
#83
0#
#84
1#
b0000000000000000000000000000000000000000000000000000000000101011 %
#85
0#
#86
1#
b0000000000000000000000000000000000000000000000000000000000101100 %
#87
0#
#88
1#
b0000000000000000000000000000000000000000000000000000000000101101 %
#89
0#
#90
1#
b0000000000000000000000000000000000000000000000000000000000101110 %
#91
0#
#92
1#
b0000000000000000000000000000000000000000000000000000000000101111 %
#93
0#
#94
1#
b0000000000000000000000000000000000000000000000000000000000110000 %
#95
0#
#96
1#
b0000000000000000000000000000000000000000000000000000000000110001 %
#97
0#
#98
1#
b0000000000000000000000000000000000000000000000000000000000110010 %
#99
0#
#100
1#
b0000000000000000000000000000000000000000000000000000000000110011 %
#101
0#
#102
1#
b0000000000000000000000000000000000000000000000000000000000110100 %
#103
0#
#104
1#
b0000000000000000000000000000000000000000000000000000000000110101 %
#105
0#
#106
1#
b0000000000000000000000000000000000000000000000000000000000110110 %
#107
0#
#108
1#
b0000000000000000000000000000000000000000000000000000000000110111 %
#109
0#
#110
1#
b0000000000000000000000000000000000000000000000000000000000111000 %
#111
0#
#112
1#
b0000000000000000000000000000000000000000000000000000000000111001 %
#113
0#
#114
1#
b0000000000000000000000000000000000000000000000000000000000111010 %
#115
0#
#116
1#
b0000000000000000000000000000000000000000000000000000000000111011 %
#117
0#
#118
1#
b0000000000000000000000000000000000000000000000000000000000111100 %
#119
0#
#120
1#
b0000000000000000000000000000000000000000000000000000000000111101 %
#121
0#
#122
1#
b0000000000000000000000000000000000000000000000000000000000111110 %
#123
0#
#124
1#
b0000000000000000000000000000000000000000000000000000000000111111 %
#125
0#
#126
1#
b0000000000000000000000000000000000000000000000000000000001000000 %
#127
0#
#128
1#
b0000000000000000000000000000000000000000000000000000000001000001 %
